<?xml version="1.0" encoding="UTF-8" standalone="no"?>
<!-- Created with Inkscape (http://www.inkscape.org/) -->

<svg
   xmlns:dc="http://purl.org/dc/elements/1.1/"
   xmlns:cc="http://creativecommons.org/ns#"
   xmlns:rdf="http://www.w3.org/1999/02/22-rdf-syntax-ns#"
   xmlns:svg="http://www.w3.org/2000/svg"
   xmlns="http://www.w3.org/2000/svg"
   xmlns:sodipodi="http://sodipodi.sourceforge.net/DTD/sodipodi-0.dtd"
   xmlns:inkscape="http://www.inkscape.org/namespaces/inkscape"
   width="70mm"
   height="45mm"
   viewBox="0 0 70 45"
   version="1.1"
   id="svg8"
   inkscape:version="0.92.3 (2405546, 2018-03-11)"
   sodipodi:docname="cogef_developers.svg"
   inkscape:export-filename="/home/oliver/gridpaw/cogef/doc/static/cogef_developers.png"
   inkscape:export-xdpi="200"
   inkscape:export-ydpi="200">
  <defs
     id="defs2" />
  <sodipodi:namedview
     id="base"
     pagecolor="#ffffff"
     bordercolor="#666666"
     borderopacity="1.0"
     inkscape:pageopacity="1"
     inkscape:pageshadow="2"
     inkscape:zoom="3.1313966"
     inkscape:cx="174.63369"
     inkscape:cy="109.64849"
     inkscape:document-units="mm"
     inkscape:current-layer="g944"
     showgrid="true"
     inkscape:window-width="1853"
     inkscape:window-height="1025"
     inkscape:window-x="67"
     inkscape:window-y="27"
     inkscape:window-maximized="1">
    <inkscape:grid
       type="xygrid"
       id="grid16" />
  </sodipodi:namedview>
  <metadata
     id="metadata5">
    <rdf:RDF>
      <cc:Work
         rdf:about="">
        <dc:format>image/svg+xml</dc:format>
        <dc:type
           rdf:resource="http://purl.org/dc/dcmitype/StillImage" />
        <dc:title></dc:title>
      </cc:Work>
    </rdf:RDF>
  </metadata>
  <g
     inkscape:label="Layer 1"
     inkscape:groupmode="layer"
     id="layer1"
     transform="translate(0,-252)">
    <g
       id="g896"
       transform="translate(-6.6145833,-1.322922)">
      <g
         id="g944"
         transform="translate(11.246571,10.583329)">
        <circle
           style="opacity:1;fill:#133f51;fill-opacity:1;fill-rule:nonzero;stroke:none;stroke-width:0.81920087;stroke-linecap:butt;stroke-linejoin:miter;stroke-miterlimit:4;stroke-dasharray:none;stroke-dashoffset:0;stroke-opacity:1"
           id="path968"
           cx="30.59623"
           cy="261.95056"
           r="16" />
        <g
           id="g966"
           transform="translate(3.96875,-5.9382324e-6)">
          <text
             transform="rotate(-90,-10.91495,0.331621)"
             xml:space="preserve"
             style="font-style:normal;font-weight:normal;font-size:5.29166651px;line-height:125%;font-family:Sans;letter-spacing:0px;word-spacing:0px;fill:#c88c00;fill-opacity:1;stroke:none;stroke-width:0.26458332px;stroke-linecap:butt;stroke-linejoin:miter;stroke-opacity:1"
             x="-288.94165"
             y="50.804691"
             id="text12"
             inkscape:export-xdpi="42.412502"
             inkscape:export-ydpi="42.412502"><tspan
               sodipodi:role="line"
               id="tspan10"
               x="-288.94165"
               y="50.804691"
               style="font-size:35.27777863px;fill:#c88c00;fill-opacity:1;stroke-width:0.26458332px">C</tspan></text>
          <path
             style="fill:#6969ff;fill-opacity:1;fill-rule:evenodd;stroke:#0000b4;stroke-width:0.26458332px;stroke-linecap:butt;stroke-linejoin:miter;stroke-opacity:1"
             d="m 25.135423,273.18751 h -5.29167 -3e-6 -2.645833 l -0.264583,1.32291 v 0 l 0.264583,1.32292 h 2.645833 3e-6 5.29167 z"
             id="path18"
             inkscape:connector-curvature="0"
             sodipodi:nodetypes="ccccccccccc"
             inkscape:export-xdpi="42.412502"
             inkscape:export-ydpi="42.412502"
             transform="translate(-11.246571,-10.583329)" />
          <path
             style="fill:#6969ff;fill-opacity:1;fill-rule:evenodd;stroke:#0000b4;stroke-width:0.26458332px;stroke-linecap:butt;stroke-linejoin:miter;stroke-opacity:1"
             d="m 50.270833,275.83334 h 5.29167 -3e-6 2.645833 l 0.26459,-1.32292 v 0 l -0.26459,-1.32291 h -2.645833 3e-6 -5.29167 z"
             id="path18-3"
             inkscape:connector-curvature="0"
             sodipodi:nodetypes="ccccccccccc"
             inkscape:export-xdpi="42.412502"
             inkscape:export-ydpi="42.412502"
             transform="translate(-11.246571,-10.583329)" />
          <path
             style="fill:#ffff00;fill-opacity:1;fill-rule:evenodd;stroke:#ffff00;stroke-width:0.26458332px;stroke-linecap:butt;stroke-linejoin:miter;stroke-opacity:1"
             d="m 33.072923,273.18751 2.64583,-1.32292 1.32292,3.96875 1.32291,-2.64583 3.96875,1.32291 -2.64583,-5.29166 2.64583,-1.32292 -2.64583,-3.96875 2.64583,-2.64583 -3.96875,-1.32292 -1.32291,-2.64583 -1.32292,2.64583 -2.64583,-1.32292 1.32291,5.29167 -2.64583,1.32292 2.64583,2.64583 z"
             id="path12"
             inkscape:connector-curvature="0"
             inkscape:export-xdpi="42.412502"
             inkscape:export-ydpi="42.412502"
             transform="translate(-11.246571,-10.583329)" />
          <path
             style="fill:none;fill-rule:evenodd;stroke:#00b400;stroke-width:1;stroke-linecap:butt;stroke-linejoin:miter;stroke-miterlimit:4;stroke-dasharray:none;stroke-opacity:1"
             d="m 30.427083,266.57292 1.32292,1.32292 1.32292,-1.32292"
             id="path822"
             inkscape:connector-curvature="0"
             inkscape:export-xdpi="42.412502"
             inkscape:export-ydpi="42.412502"
             transform="translate(-11.246571,-10.583329)" />
          <path
             style="fill:none;fill-rule:evenodd;stroke:#00b400;stroke-width:1;stroke-linecap:butt;stroke-linejoin:miter;stroke-miterlimit:4;stroke-dasharray:none;stroke-opacity:1"
             d="m 46.037503,266.57292 -2.11667,-1.5875 -1.32291,1.32292 -1.32292,-1.05833 -0.26458,0.26458"
             id="path824"
             inkscape:connector-curvature="0"
             sodipodi:nodetypes="ccccc"
             inkscape:export-xdpi="42.412502"
             inkscape:export-ydpi="42.412502"
             transform="translate(-11.246571,-10.583329)" />
          <path
             sodipodi:nodetypes="ccccccccc"
             inkscape:connector-curvature="0"
             id="path68"
             d="m 9.2604166,294.35417 2.6458334,-9.26041 5.291666,9.26041 -5.291666,-9.26041 -1.322917,-9.26042 6.614583,-2.64584 -6.614583,2.64584 h 6.614583 -6.614583"
             style="fill:none;fill-rule:evenodd;stroke:#000000;stroke-width:0.80000001;stroke-linecap:butt;stroke-linejoin:miter;stroke-miterlimit:4;stroke-dasharray:none;stroke-opacity:1"
             transform="translate(-11.246571,-10.583329)" />
          <circle
             r="5"
             cy="270.14752"
             cx="9.6811304"
             id="path70"
             style="opacity:1;fill:none;fill-opacity:1;fill-rule:nonzero;stroke:#000000;stroke-width:0.80000001;stroke-linecap:butt;stroke-linejoin:miter;stroke-miterlimit:4;stroke-dasharray:none;stroke-dashoffset:0;stroke-opacity:1"
             transform="translate(-11.246571,-10.583329)" />
          <path
             style="fill:none;fill-rule:evenodd;stroke:#000000;stroke-width:0.80000001;stroke-linecap:butt;stroke-linejoin:miter;stroke-miterlimit:4;stroke-dasharray:none;stroke-opacity:1"
             d="m 50.930512,283.77084 -2.645833,-9.26041 -7.9375,9.26041 7.9375,-9.26041 5.291667,-9.26042 -6.614583,-2.64584 6.614583,2.64584 h -6.614583 6.614583"
             id="path68-5"
             inkscape:connector-curvature="0"
             sodipodi:nodetypes="ccccccccc" />
          <circle
             style="opacity:1;fill:none;fill-opacity:1;fill-rule:nonzero;stroke:#000000;stroke-width:0.80000001;stroke-linecap:butt;stroke-linejoin:miter;stroke-miterlimit:4;stroke-dasharray:none;stroke-dashoffset:0;stroke-opacity:1"
             id="path70-3"
             cx="-55.323483"
             cy="260.15564"
             r="5"
             transform="scale(-1,1)" />
        </g>
      </g>
    </g>
  </g>
</svg>
